{
  "banner": {
    "background": "cdn/images/backgrounds/banner.jpg",
    "header": "There's good in this search, I can feel it.",
    "placeholder": "Search the galaxy...",
    "buttons": {
      "one": "Use the Force",
      "two": "Encompass the Dark Side"
    },
    "alert": "The force is strong with this one, but not strong enough to enter an actual search."
  },
  "numbers": [
    {
      "popover": "Forum threads have been posted in the past six months.",
      "count": "2400",
      "title": "Threads"
    },
    {
      "popover": "We've played over 3,200 games as a community, meaning over 23,002,232 hours joint.",
      "count": "3200",
      "title": "Games"
    },
    {
      "popover": "Thousands of new users have joined our ranks. Ranging from hardcore gamers loving their Arma 3 binges, and casual gamers with tabletop simulator.",
      "count": "450000",
      "title": "Users"
    },
    {
      "popover": "Together, our Content and Data APIs have handled over one million total requests.",
      "count": "1000230",
      "title": "Requests"
    },
    {
      "popover": "Our users have contributed to our articles and forums with over 230,000 comments.",
      "count": "238203",
      "title": "Comments"
    },
    {
      "popover": "Leaders have spent over 1000 hours to writing more than 2,300 articles.",
      "count": "2394",
      "title": "Articles"
    }
  ],
  "deck": [
    {
      "cards": [
        {
          "title": "Polaris Becomes Sentient",
          "image": "cdn/images/articles/polaris.png",
          "description": "Developers Sam and Alex work towards a greater use for the once Discord-only bot Polaris by developing a task manager for the rest of Moonsquads' future developments."
        },
        {
          "title": "Second Anniversary",
          "image": "cdn/images/articles/moonsquads.jpg",
          "description": "Moonsquads celebrates the second year anniversary of the community and of development."
        },
        {
          "title": "Enter Dragon",
          "image": "cdn/images/articles/minecraft.jpg",
          "description": "With the help of some brave Moonsquads warriors, Sinister Rectus and friends take down the Ender Dragon on the Moonsquads minecraft server."
        },
        {
          "title": "Joyal the Editor",
          "image": "cdn/images/articles/movie.jpg",
          "description": "Developer Joyal takes to the movie editor with footage of a quick GTA: V movie we made over the course of a day. Action shot!"
        }
      ]
    },
    {
      "cards": [
        {
          "title": "Newly Appointed Recruits",
          "image": "cdn/images/articles/arma3.jpg",
          "description": "Supervisor Adam  and Leader Connor take the lead in the becoming the first member of the 82nd Last Resort. "
        },
        {
          "title": "Our of Your League",
          "image": "cdn/images/articles/rocketleague.jpg",
          "description": "After several years of casually playing, Sinister Rectus has become on of the best Rocket League players in the Moonsquads community."
        },
        {
          "title": "Get Framed",
          "image": "cdn/images/articles/warframe.png",
          "description": "Leader Owen and Akitany finish Warframe with 100% completion, and over 2,000 trophies, having maximised efforts on the Moonsquads Dojo."
        },
        {
          "title": "Witch? Er.",
          "image": "cdn/images/articles/thewitcher.jpg",
          "description": "Proving the most popular game this year is Projekt Red's The Witcher 3, some of our members wrote their own little reviews."
        }
      ]
    }
  ],
  "interests": [
    {
        "id": 203,
        "name": "Counter Strike: Global Offensive",
        "count": 286763,
        "breakpoint": "hidden-xs hidden-sm"
    },
    {
        "id": 342,
        "name": "Grand Theft Auto: V",
        "count": 349392,
        "breakpoint": "hidden-xs hidden-sm"
    },
    {
        "id": 569,
        "name": "Warframe",
        "count": 9989,
        "breakpoint": "hidden-xs"
    },
    {
        "id": 293,
        "name": "World of Tanks",
        "count": 39490,
        "breakpoint": "hidden-xs hidden-sm"
    },
    {
        "id": 988,
        "name": "Rocket League",
        "count": 2763,
        "breakpoint": "hidden-xs hidden-sm"
    }
   ],
   "games": [
      {
         "name": "Warframe",
         "icon": "cdn/images/games/warframe-icon.png",
         "preview": "cdn/images/games/warframe-background.png",
         "title": "Warframe",
         "description": "Led by Leader Owen, Warframe is co-op focused action game that situates players as members of the Tenno race, newly awoken after years of cryo-sleep into a Solar System at war."
      },
      {
         "name": "GTA",
         "icon": "cdn/images/games/gta-icon.png",
         "preview": "cdn/images/games/gta-background.png",
         "title": "Grand Theft Auto",
         "description": "Developed by Rockstar North, Grand Theft Auto V is an open world action-adventure game. We prefer online, where we spend hours playing, and making sure Sam is aware of how banned he actually is.",
         "buttons": [
            {
               "text": "See the Crew",
               "link": "https://socialclub.rockstargames.com/crew/moonsquads"
            }
         ]
      }
   ],
   "giveaways": [
      {
         "background": "cdn/images/giveaways/deusex.jpg",
         "title": "Deus Ex: Human Revolution",
         "end_date": "2017/10/12",
         "host": "Josh",
         "link": "http://www.google.com"
      },
      {
         "background": "cdn/images/giveaways/borderlands.jpg",
         "title": "Borderlands 2",
         "end_date": "2017/08/27",
         "host": "Joyal",
         "link": "http://www.google.com"
      }
   ]
}
